\relax 
\providecommand\hyper@newdestlabel[2]{}
\providecommand\HyperFirstAtBeginDocument{\AtBeginDocument}
\HyperFirstAtBeginDocument{\ifx\hyper@anchor\@undefined
\global\let\oldcontentsline\contentsline
\gdef\contentsline#1#2#3#4{\oldcontentsline{#1}{#2}{#3}}
\global\let\oldnewlabel\newlabel
\gdef\newlabel#1#2{\newlabelxx{#1}#2}
\gdef\newlabelxx#1#2#3#4#5#6{\oldnewlabel{#1}{{#2}{#3}}}
\AtEndDocument{\ifx\hyper@anchor\@undefined
\let\contentsline\oldcontentsline
\let\newlabel\oldnewlabel
\fi}
\fi}
\global\let\hyper@last\relax 
\gdef\HyperFirstAtBeginDocument#1{#1}
\providecommand\HyField@AuxAddToFields[1]{}
\providecommand\HyField@AuxAddToCoFields[2]{}
\citation{olson2010apriltag}
\@writefile{toc}{\contentsline {section}{\numberline {1}\hskip -1em.\nobreakspace  {}Introduction}{1}{section.1}}
\newlabel{Sec:Intro}{{1}{1}{\hskip -1em.~Introduction}{section.1}{}}
\@writefile{brf}{\backcite{olson2010apriltag}{{1}{1}{section.1}}}
\@writefile{toc}{\contentsline {section}{\numberline {2}\hskip -1em.\nobreakspace  {}Method}{1}{section.2}}
\newlabel{Sec:Method}{{2}{1}{\hskip -1em.~Method}{section.2}{}}
\@writefile{lof}{\contentsline {figure}{\numberline {1}{\ignorespaces you can see how we visualy demonstrates the tag information\relax }}{2}{figure.caption.1}}
\providecommand*\caption@xref[2]{\@setref\relax\@undefined{#1}}
\newlabel{Fig:Intro}{{1}{2}{you can see how we visualy demonstrates the tag information\relax }{figure.caption.1}{}}
\@writefile{lof}{\contentsline {figure}{\numberline {2}{\ignorespaces SwatBotics algorithm failed to detect in this image\relax }}{2}{figure.caption.2}}
\newlabel{Fig:Failure}{{2}{2}{SwatBotics algorithm failed to detect in this image\relax }{figure.caption.2}{}}
\@writefile{lof}{\contentsline {figure}{\numberline {3}{\ignorespaces example of feature matching algorithm\relax }}{2}{figure.caption.3}}
\newlabel{Fig:FeatureMatching}{{3}{2}{example of feature matching algorithm\relax }{figure.caption.3}{}}
\bibstyle{ieee}
\bibdata{refs}
\@writefile{lof}{\contentsline {figure}{\numberline {4}{\ignorespaces The camera claibration equation\relax }}{3}{figure.caption.4}}
\newlabel{Fig:CalibrationEquation}{{4}{3}{The camera claibration equation\relax }{figure.caption.4}{}}
\@writefile{lof}{\contentsline {figure}{\numberline {5}{\ignorespaces Axis system, camera and "world"-tag\relax }}{3}{figure.caption.5}}
\newlabel{Fig:AxisSystem}{{5}{3}{Axis system, camera and "world"-tag\relax }{figure.caption.5}{}}
\@writefile{lof}{\contentsline {figure}{\numberline {6}{\ignorespaces SwatBotics detector works well\relax }}{3}{figure.caption.6}}
\newlabel{Fig:Regular}{{6}{3}{SwatBotics detector works well\relax }{figure.caption.6}{}}
\@writefile{toc}{\contentsline {section}{\numberline {3}\hskip -1em.\nobreakspace  {}Results}{3}{section.3}}
\newlabel{Sec:Results}{{3}{3}{\hskip -1em.~Results}{section.3}{}}
\@writefile{lof}{\contentsline {figure}{\numberline {7}{\ignorespaces Our improvment works well\relax }}{3}{figure.caption.7}}
\newlabel{Fig:Improvement}{{7}{3}{Our improvment works well\relax }{figure.caption.7}{}}
\@writefile{toc}{\contentsline {section}{\numberline {4}\hskip -1em.\nobreakspace  {}Conclusion}{3}{section.4}}
\newlabel{Sec:Conclusion}{{4}{3}{\hskip -1em.~Conclusion}{section.4}{}}
\@writefile{toc}{\contentsline {section}{\numberline {5}\hskip -1em.\nobreakspace  {}References}{3}{section.5}}
\newlabel{Sec:References}{{5}{3}{\hskip -1em.~References}{section.5}{}}
